^E:\WPI\SEMESTER1\MISCELLANEOUS\DEVELOPMENTRIG\CORAL2\DEBUG\BATCHPROCESS.OBJ|E:\WPI\SEMESTER1\MISCELLANEOUS\DEVELOPMENTRIG\CORAL2\DEBUG\CORAL2.OBJ|E:\WPI\SEMESTER1\MISCELLANEOUS\DEVELOPMENTRIG\CORAL2\DEBUG\GROUPS.OBJ|E:\WPI\SEMESTER1\MISCELLANEOUS\DEVELOPMENTRIG\CORAL2\DEBUG\MAIN.OBJ|E:\WPI\SEMESTER1\MISCELLANEOUS\DEVELOPMENTRIG\CORAL2\DEBUG\MUZAMMIL.OBJ|E:\WPI\SEMESTER1\MISCELLANEOUS\DEVELOPMENTRIG\CORAL2\DEBUG\STDAFX.OBJ
E:\WPI\SEMESTER1\MISCELLANEOUS\DEVELOPMENTRIG\DEBUG\CORAL2.ILK
E:\WPI\SEMESTER1\MISCELLANEOUS\DEVELOPMENTRIG\DEBUG\CORAL2.EXE
E:\WPI\SEMESTER1\MISCELLANEOUS\DEVELOPMENTRIG\DEBUG\CORAL2.PDB
